{
  "$schema": "https://docs.renovatebot.com/renovate-schema.json",
  "extends": [
    "local>varac-projects/renovate-config"
  ],
  "packageRules": [
    {
      "description": "https://github.com/tcort/markdown-link-check/issues/369",
      "matchPackageNames": [
        "tcort/markdown-link-check"
      ],
      "allowedVersions": "<=3.12.2"
    }
  ]
}
